<?xml version="1.0" encoding="UTF-8"?>
<svg id="Layer_1" width="155" height="70" enable-background="new -0.5 0 155 70" version="1.1" viewBox="-.5 0 155 70" xml:space="preserve" xmlns="http://www.w3.org/2000/svg">
	<polygon id="polygon1" transform="matrix(.77666 0 0 .77666 16.519 6.5583)" points="93.153 38.415 93.153 31.262 82.468 31.262 82.468 27.543 94.94 27.543 94.94 19.236 73.53 19.236 73.53 50.316 94.94 50.316 94.94 42.01 82.468 42.01 82.468 38.415" fill="#00b4a6"/>
	<polygon id="polygon2" transform="matrix(.77666 0 0 .77666 16.519 6.5583)" points="141.93 38.93 141.93 50.316 151.18 50.316 151.18 19.236 141.93 19.236 141.93 30.623 132.89 30.623 132.89 19.236 123.63 19.236 123.63 50.316 132.89 50.316 132.89 38.93" fill="#00b4a6"/>
	<polygon id="polygon3" transform="matrix(.77666 0 0 .77666 16.519 6.5583)" points="120.24 50.316 120.24 42.01 107.76 42.01 107.76 27.543 120.24 27.543 120.24 19.236 98.826 19.236 98.826 50.316" fill="#00b4a6"/>
	<polygon id="polygon4" transform="matrix(.77666 0 0 .77666 16.519 6.5583)" points="58.706 28.911 58.706 58.522 68.731 48.726 68.731 19.147 45.198 19.147 35.169 28.911" fill="#00b4a6"/>
		<path id="path4" d="m58.549 54.052c0.0016-0.0016 0.0031-0.0023 0.0047-0.0031l-0.0047-0.0023v-21.49h-18.413l-7.6361 7.4746h18.339v9.6492l-0.02874-0.01631c-2.2088 1.0073-4.6607 1.5727-7.2463 1.5727-9.6625 0-17.495-7.8326-17.495-17.495s7.8326-17.495 17.495-17.495c2.2647 0 4.4262 0.43493 6.4129 1.2186l5.8972-5.7582c-3.6433-2.0395-7.8396-3.2068-12.311-3.2068-13.941 0-25.242 11.301-25.242 25.242s11.3 25.242 25.242 25.242c5.1632 0 9.9615-1.5557 13.961-4.2165z" fill="#008bd0" stroke-width=".77666"/>
		<polygon id="polygon5" transform="matrix(.77666 0 0 .77666 16.519 6.5583)" points="68.731 19.147 45.198 19.147 35.169 28.911 58.706 28.911" fill="#00a09d"/>
		<polygon id="polygon6" transform="matrix(.77666 0 0 .77666 16.519 6.5583)" points="54.117 33.474 30.409 33.474 20.577 43.098 44.19 43.098" fill="#0079c1"/>
</svg>
