<?xml version="1.0" encoding="UTF-8"?>
<svg id="svg3018" version="1.1" viewBox="0 0 800 129.04" xmlns="http://www.w3.org/2000/svg">
 <defs id="defs3020">
  <clipPath id="clipPath3102-4">
   <rect id="rect3104-1" transform="matrix(.73449 .67862 -.78497 .61953 0 0)" x="-83" y="-347.71" width="436.4" height="326.41" fill="#e57000" fill-rule="evenodd"/>
  </clipPath>
 </defs>
 <g id="layer1" transform="translate(1451.1 38.932)">
  <g id="g3378" transform="matrix(.28027 0 0 .28027 -1040.8 61.254)">
   <g id="g3016-9" transform="matrix(.85287 0 0 .85287 -2204.8 -970.06)">
    <g id="text3093-5" transform="matrix(-.99792 0 0 .99792 1452.4 746.05)" clip-path="url(#clipPath3102-4)">
     <path id="path3098-5" d="m276.3 226.62 190.59-209.6c-7.3932-7.3925-16.005-13.201-25.834-17.426-9.8304-4.2241-20.392-6.377-31.684-6.4586-11.993 0.091745-22.981 2.468-32.963 7.1288-9.9826 4.6615-18.655 11.059-26.017 19.193l-74.091 80.915-73.603-80.915c-7.6265-8.1338-16.502-14.531-26.626-19.193-10.125-4.6608-21.072-7.0371-32.841-7.1288-11.292 0.081586-21.854 2.2344-31.684 6.4586-9.83 4.2248-18.441 10.033-25.834 17.426l190.59 209.6"/>
    </g>
    <g id="g3196-9" transform="matrix(.99792 0 0 -.99792 900.9 1230.4)" clip-path="url(#clipPath3102-4)">
     <path id="path3198-1" d="m276.3 226.62 190.59-209.6c-7.3932-7.3925-16.005-13.201-25.834-17.426-9.8304-4.2241-20.392-6.377-31.684-6.4586-11.993 0.091745-22.981 2.468-32.963 7.1288-9.9826 4.6615-18.655 11.059-26.017 19.193l-74.091 80.915-73.603-80.915c-7.6265-8.1338-16.502-14.531-26.626-19.193-10.125-4.6608-21.072-7.0371-32.841-7.1288-11.292 0.081586-21.854 2.2344-31.684 6.4586-9.83 4.2248-18.441 10.033-25.834 17.426l190.59 209.6"/>
    </g>
    <path id="path3278-4" d="m1160.6 988.21-143.27-157.11c-8.333-8.8872-18.031-15.878-29.093-20.971-11.063-5.0926-23.024-7.6889-35.883-7.7891-12.338 0.0892-23.878 2.4415-34.618 7.0568-10.741 4.6161-20.15 10.963-28.227 19.04l145.4 159.78-145.4 159.78c8.0776 8.3329 17.487 14.835 28.227 19.506 10.741 4.6712 22.28 7.0457 34.618 7.1234 12.893-0.1 24.921-2.6962 36.083-7.7891 11.162-5.0929 20.793-12.083 28.893-20.971l143.27-157.65" fill="#e57000"/>
    <path id="path3280-5" d="m1192.6 988.21 143.27-157.11c8.333-8.8872 18.031-15.878 29.093-20.971 11.062-5.0926 23.024-7.6889 35.883-7.7891 12.338 0.0892 23.878 2.4415 34.618 7.0568 10.741 4.6161 20.15 10.963 28.227 19.04l-145.4 159.78 145.4 159.78c-8.0776 8.3329-17.487 14.835-28.227 19.506-10.74 4.6712-22.28 7.0457-34.618 7.1234-12.893-0.1-24.921-2.6962-36.083-7.7891s-20.793-12.083-28.893-20.971l-143.27-157.65" fill="#e57000"/>
   </g>
   <g id="g3368">
    <g id="text3223">
     <path id="path3354" d="m-686.18-262.39h-177.87c-6.9834 0.19403-12.877 2.7129-17.68 7.5566-4.8036 4.8442-7.3063 10.851-7.5081 18.02v245.69c19.085-0.47633 34.973-7.0803 47.665-19.812 12.691-12.732 19.279-28.733 19.763-48.004h135.63c19.287-0.47626 35.353-7.0802 48.197-19.812 12.844-12.731 19.513-28.733 20.006-48.004v-67.428c-0.49274-19.287-7.1612-35.353-20.006-48.197-12.845-12.844-28.911-19.513-48.197-20.006zm-135.63 144.16v-75.953h118.97c0.69411-0.34694 3.4713 0.34736 8.3316 2.0829 4.8599 1.736 7.6371 6.596 8.3316 14.58v42.239c0.34694 0.7106-0.34736 3.5524-2.0829 8.5254-1.736 4.9733-6.5961 7.815-14.58 8.5254z"/>
     <path id="path3356" d="m-308.05-143.42v-50.765c-0.4766-19.287-7.0805-35.353-19.812-48.197-12.732-12.844-28.733-19.513-48.004-20.006h-177.87c-7.1529 0.19403-13.095 2.7129-17.826 7.5566-4.731 4.8442-7.1852 10.851-7.3628 18.02v245.69c19.101-0.47633 35.054-7.0803 47.858-19.812 12.804-12.732 19.457-28.733 19.957-48.004v-17.051h77.116l39.139 55.802c6.2808 9.0098 14.16 16.082 23.639 21.217 9.4778 5.1346 20.07 7.7503 31.776 7.8472 5.643-0.00808 11.117-0.67009 16.421-1.986 5.3039-1.3159 10.293-3.2374 14.968-5.7643l-54.64-77.891c15.84-3.4311 28.821-11.198 38.945-23.299 10.124-12.102 15.355-26.553 15.694-43.353zm-203.06 8.1379v-58.903h118.19c0.71026-0.34694 3.552 0.34736 8.5254 2.0829 4.9729 1.736 7.8147 6.596 8.5254 14.58v25.576c0.35502 0.69445-0.35543 3.4717-2.1314 8.3316-1.7763 4.8602-6.7494 7.6375-14.919 8.3316z"/>
     <path id="path3358" d="m-66.297-262.39h-135.24c-19.271 0.49275-35.272 7.1613-48.004 20.006-12.732 12.845-19.335 28.911-19.812 48.197v135.24c0.47632 19.271 7.0802 35.272 19.812 48.004 12.732 12.732 28.733 19.335 48.004 19.812h135.24c19.271-0.47633 35.272-7.0803 48.004-19.812 12.731-12.732 19.335-28.733 19.812-48.004v-135.24c-0.4766-19.287-7.0805-35.353-19.812-48.197-12.732-12.844-28.733-19.513-48.004-20.006zm0 186.4c0.35502 0.71054-0.35543 3.5523-2.1314 8.5254-1.7763 4.9732-6.7495 7.815-14.919 8.5254h-101.14c-0.71053 0.35529-3.5523-0.35516-8.5254-2.1314-4.9732-1.7761-7.815-6.7492-8.5254-14.919v-101.53c-0.3553-0.69411 0.35515-3.4713 2.1313-8.3316 1.776-4.8599 6.7492-7.6371 14.919-8.3316h101.14c0.71026-0.34694 3.5521 0.34736 8.5254 2.0829 4.9729 1.736 7.8147 6.596 8.5254 14.58z"/>
     <path id="path3360" d="m343.25-243.01c-5.8776-5.8771-12.724-10.495-20.538-13.854-7.8152-3.3582-16.211-5.0697-25.189-5.1346-9.5509 0.0729-18.351 1.9621-26.4 5.6674-8.0493 3.7059-15.008 8.792-20.877 15.258l-58.515 64.328-58.903-64.328c-6.0228-6.636-12.966-11.771-20.829-15.404-7.8634-3.6327-16.55-5.4734-26.061-5.5221-8.9775 0.0649-17.374 1.7764-25.189 5.1346-7.8149 3.3587-14.661 7.9766-20.538 13.854l105.79 116.26-105.79 116.26c5.8773 6.063 12.723 10.794 20.538 14.193 7.8149 3.3988 16.211 5.1265 25.189 5.183 9.3811-0.072659 18.133-1.9618 26.254-5.6674 8.1216-3.7056 15.129-8.7918 21.023-15.258l58.515-64.328 58.515 64.328c5.8691 6.4667 12.828 11.553 20.877 15.258 8.0488 3.7056 16.849 5.5948 26.4 5.6674 8.9772-0.056513 17.373-1.7842 25.189-5.183 7.8146-3.3988 14.661-8.1298 20.538-14.193l-105.79-116.26z" fill="#e57000"/>
     <path id="path3362" d="m695.82-262.39h-42.627c-13.943 0.19403-26.359 3.9723-37.25 11.335-10.891 7.3631-19.142 17.148-24.753 29.354l0.38752-0.77503-39.914 87.579-39.527-87.579v0.77503c-5.4415-12.207-13.644-21.991-24.607-29.354-10.964-7.3626-23.429-11.141-37.395-11.335h-42.239c-7.3386 0.19403-13.394 2.7129-18.165 7.5566-4.7713 4.8442-7.2417 10.851-7.4113 18.02v245.69c19.101-0.47633 35.054-7.0803 47.858-19.812 12.804-12.732 19.457-28.733 19.957-48.004v-129.82c0.0241-1.7678 0.55699-3.1726 1.5985-4.2142 1.0414-1.0412 2.4461-1.5741 4.2142-1.5985 1.0091 0.0325 1.994 0.35542 2.9548 0.96878 0.96064 0.61377 1.6549 1.3242 2.0829 2.1314l75.178 165.86c1.4207 2.9629 3.5198 5.3687 6.2972 7.2175 2.777 1.8488 5.8449 2.8015 9.2035 2.8579 3.3341-0.04034 6.3535-0.92839 9.0582-2.6642 2.7044-1.7357 4.8518-4.077 6.4425-7.0238l75.178-166.24c0.58909-0.80712 1.348-1.5176 2.2767-2.1314 0.92817-0.61337 1.9777-0.9363 3.1486-0.96878 1.5821 0.0244 2.8738 0.55726 3.8752 1.5985 1.0008 1.0416 1.5175 2.4464 1.5501 4.2142v129.82c0.50027 19.271 7.1526 35.272 19.957 48.004 12.804 12.732 28.757 19.335 47.858 19.812v-245.69c-0.17794-7.1688-2.6322-13.175-7.3628-18.02-4.7313-4.8437-10.673-7.3626-17.826-7.5566z"/>
     <path id="path3364" d="m963.06-262.39h-135.24c-19.271 0.49275-35.272 7.1613-48.004 20.006-12.732 12.845-19.335 28.911-19.812 48.197v135.24c0.47632 19.271 7.0802 35.272 19.812 48.004 12.732 12.732 28.733 19.335 48.004 19.812h135.24c19.271-0.47633 35.272-7.0803 48.004-19.812 12.731-12.732 19.335-28.733 19.812-48.004v-135.24c-0.4766-19.287-7.0805-35.353-19.812-48.197-12.732-12.844-28.733-19.513-48.004-20.006zm0 186.4c0.35502 0.71054-0.35543 3.5523-2.1314 8.5254-1.7763 4.9732-6.7495 7.815-14.919 8.5254h-101.14c-0.71053 0.35529-3.5523-0.35516-8.5254-2.1314-4.9732-1.7761-7.815-6.7492-8.5254-14.919v-101.53c-0.35529-0.69411 0.35515-3.4713 2.1313-8.3316 1.776-4.8599 6.7492-7.6371 14.919-8.3316h101.14c0.71026-0.34694 3.552 0.34736 8.5254 2.0829 4.9729 1.736 7.8147 6.596 8.5254 14.58z"/>
     <path id="path3366" d="m1372.6-243.01c-5.8777-5.8771-12.724-10.495-20.538-13.854-7.8152-3.3582-16.211-5.0697-25.189-5.1346-9.551 0.0729-18.351 1.9621-26.4 5.6674-8.0493 3.7059-15.008 8.792-20.878 15.258l-58.515 64.328-58.903-64.328c-6.0227-6.636-12.966-11.771-20.829-15.404-7.8635-3.6327-16.55-5.4734-26.061-5.5221-8.9775 0.0649-17.374 1.7764-25.189 5.1346-7.8149 3.3587-14.661 7.9766-20.538 13.854l105.79 116.26-105.79 116.26c5.8774 6.063 12.724 10.794 20.538 14.193 7.8149 3.3988 16.211 5.1265 25.189 5.183 9.3811-0.072659 18.133-1.9618 26.254-5.6674 8.1217-3.7056 15.129-8.7918 21.023-15.258l58.515-64.328 58.515 64.328c5.869 6.4667 12.828 11.553 20.878 15.258 8.0488 3.7056 16.849 5.5948 26.4 5.6674 8.9772-0.056513 17.373-1.7842 25.189-5.183 7.8146-3.3988 14.661-8.1298 20.538-14.193l-105.79-116.26z" fill="#e57000"/>
    </g>
   </g>
  </g>
 </g>
</svg>
